{
    "appUrl": "http://staging.bsa-hedonist.online",
    "email": "wdiotest@wdiotest.com",
    "password": "wdiotest",
    "first_name": "Amber",
    "last_name": "Dibbert",
    "language": "en",
    "changedPassword": "123123123",
    "incorrectCredentialsErrorText": "The email or password is incorrect",
    "dataChangeSuccessText": "Data successfully changed",
    "name": "wdiotest",
    "surname": "wdiotest",
    "changedName": "Martin",
    "changedSurname": "Luthor"
}